<mxfile host="Electron" modified="2024-09-16T08:56:26.473Z" agent="Mozilla/5.0 (X11; Linux x86_64) AppleWebKit/537.36 (KHTML, like Gecko) draw.io/23.1.5 Chrome/120.0.6099.109 Electron/28.1.0 Safari/537.36" etag="Az9XCqaHtdNZYKHaOK5e" version="23.1.5" type="device">
  <diagram name="Seite-1" id="q5YmCEUDDZF9bGHX0akU">
    <mxGraphModel dx="1434" dy="841" grid="1" gridSize="10" guides="1" tooltips="1" connect="1" arrows="1" fold="1" page="1" pageScale="1" pageWidth="827" pageHeight="1169" math="0" shadow="0">
      <root>
        <mxCell id="0" />
        <mxCell id="1" parent="0" />
        <mxCell id="HUF-Rs4nVlGNA6Nc7pEi-1" value="Ethernet" style="rounded=0;whiteSpace=wrap;html=1;fillColor=#0050ef;fontColor=#ffffff;strokeColor=#001DBC;" parent="1" vertex="1">
          <mxGeometry y="230" width="80" height="40" as="geometry" />
        </mxCell>
        <mxCell id="HUF-Rs4nVlGNA6Nc7pEi-5" value="IPv4" style="rounded=0;whiteSpace=wrap;html=1;fillColor=#f0a30a;fontColor=#000000;strokeColor=#BD7000;" parent="1" vertex="1">
          <mxGeometry x="80" y="230" width="200" height="40" as="geometry" />
        </mxCell>
        <mxCell id="HUF-Rs4nVlGNA6Nc7pEi-22" style="edgeStyle=orthogonalEdgeStyle;rounded=0;orthogonalLoop=1;jettySize=auto;html=1;exitX=0.5;exitY=1;exitDx=0;exitDy=0;" parent="1" source="HUF-Rs4nVlGNA6Nc7pEi-6" target="HUF-Rs4nVlGNA6Nc7pEi-17" edge="1">
          <mxGeometry relative="1" as="geometry" />
        </mxCell>
        <mxCell id="HUF-Rs4nVlGNA6Nc7pEi-6" value="IPv6" style="rounded=0;whiteSpace=wrap;html=1;fillColor=#6a00ff;fontColor=#ffffff;strokeColor=#3700CC;" parent="1" vertex="1">
          <mxGeometry x="280" y="230" width="400" height="40" as="geometry" />
        </mxCell>
        <mxCell id="HUF-Rs4nVlGNA6Nc7pEi-7" value="..." style="shape=document;whiteSpace=wrap;html=1;boundedLbl=1;rotation=-90;" parent="1" vertex="1">
          <mxGeometry x="700" y="140" width="40" height="80" as="geometry" />
        </mxCell>
        <mxCell id="HUF-Rs4nVlGNA6Nc7pEi-11" style="edgeStyle=orthogonalEdgeStyle;rounded=0;orthogonalLoop=1;jettySize=auto;html=1;exitX=0.5;exitY=1;exitDx=0;exitDy=0;" parent="1" source="HUF-Rs4nVlGNA6Nc7pEi-8" target="HUF-Rs4nVlGNA6Nc7pEi-13" edge="1">
          <mxGeometry relative="1" as="geometry" />
        </mxCell>
        <mxCell id="HUF-Rs4nVlGNA6Nc7pEi-8" value="IPv6" style="rounded=0;whiteSpace=wrap;html=1;fillColor=#6a00ff;fontColor=#ffffff;strokeColor=#3700CC;" parent="1" vertex="1">
          <mxGeometry x="80" y="70" width="400" height="40" as="geometry" />
        </mxCell>
        <mxCell id="HUF-Rs4nVlGNA6Nc7pEi-9" value="..." style="shape=document;whiteSpace=wrap;html=1;boundedLbl=1;rotation=-90;" parent="1" vertex="1">
          <mxGeometry x="500" y="50" width="40" height="80" as="geometry" />
        </mxCell>
        <mxCell id="HUF-Rs4nVlGNA6Nc7pEi-10" value="Ethernet" style="rounded=0;whiteSpace=wrap;html=1;fillColor=#0050ef;fontColor=#ffffff;strokeColor=#001DBC;" parent="1" vertex="1">
          <mxGeometry y="70" width="80" height="40" as="geometry" />
        </mxCell>
        <mxCell id="HUF-Rs4nVlGNA6Nc7pEi-13" value="" style="sketch=0;outlineConnect=0;fontColor=#232F3E;gradientColor=none;fillColor=#8C4FFF;strokeColor=none;dashed=0;verticalLabelPosition=bottom;verticalAlign=top;align=center;html=1;fontSize=12;fontStyle=0;aspect=fixed;pointerEvents=1;shape=mxgraph.aws4.router;" parent="1" vertex="1">
          <mxGeometry x="259" y="140" width="42" height="42" as="geometry" />
        </mxCell>
        <mxCell id="HUF-Rs4nVlGNA6Nc7pEi-15" style="edgeStyle=orthogonalEdgeStyle;rounded=0;orthogonalLoop=1;jettySize=auto;html=1;entryX=0.484;entryY=-0.054;entryDx=0;entryDy=0;entryPerimeter=0;" parent="1" source="HUF-Rs4nVlGNA6Nc7pEi-13" target="HUF-Rs4nVlGNA6Nc7pEi-6" edge="1">
          <mxGeometry relative="1" as="geometry" />
        </mxCell>
        <mxCell id="HUF-Rs4nVlGNA6Nc7pEi-16" value="6in4Tunnel" style="edgeLabel;html=1;align=center;verticalAlign=middle;resizable=0;points=[];" parent="HUF-Rs4nVlGNA6Nc7pEi-15" vertex="1" connectable="0">
          <mxGeometry x="0.0491" y="1" relative="1" as="geometry">
            <mxPoint as="offset" />
          </mxGeometry>
        </mxCell>
        <mxCell id="HUF-Rs4nVlGNA6Nc7pEi-23" style="edgeStyle=orthogonalEdgeStyle;rounded=0;orthogonalLoop=1;jettySize=auto;html=1;exitX=0.5;exitY=1;exitDx=0;exitDy=0;" parent="1" source="HUF-Rs4nVlGNA6Nc7pEi-17" target="HUF-Rs4nVlGNA6Nc7pEi-18" edge="1">
          <mxGeometry relative="1" as="geometry" />
        </mxCell>
        <mxCell id="HUF-Rs4nVlGNA6Nc7pEi-17" value="IPv4 only Network" style="image;aspect=fixed;perimeter=ellipsePerimeter;html=1;align=center;shadow=0;dashed=0;spacingTop=3;image=img/lib/active_directory/internet_cloud.svg;labelPosition=center;verticalLabelPosition=middle;verticalAlign=middle;" parent="1" vertex="1">
          <mxGeometry x="392.7" y="310" width="174.6" height="110" as="geometry" />
        </mxCell>
        <mxCell id="HUF-Rs4nVlGNA6Nc7pEi-24" style="edgeStyle=orthogonalEdgeStyle;rounded=0;orthogonalLoop=1;jettySize=auto;html=1;entryX=0.5;entryY=0;entryDx=0;entryDy=0;" parent="1" source="HUF-Rs4nVlGNA6Nc7pEi-18" target="HUF-Rs4nVlGNA6Nc7pEi-20" edge="1">
          <mxGeometry relative="1" as="geometry" />
        </mxCell>
        <mxCell id="HUF-Rs4nVlGNA6Nc7pEi-18" value="" style="sketch=0;outlineConnect=0;fontColor=#232F3E;gradientColor=none;fillColor=#8C4FFF;strokeColor=none;dashed=0;verticalLabelPosition=bottom;verticalAlign=top;align=center;html=1;fontSize=12;fontStyle=0;aspect=fixed;pointerEvents=1;shape=mxgraph.aws4.router;" parent="1" vertex="1">
          <mxGeometry x="259" y="478" width="42" height="42" as="geometry" />
        </mxCell>
        <mxCell id="HUF-Rs4nVlGNA6Nc7pEi-19" value="Ethernet" style="rounded=0;whiteSpace=wrap;html=1;fillColor=#0050ef;fontColor=#ffffff;strokeColor=#001DBC;" parent="1" vertex="1">
          <mxGeometry y="550" width="80" height="40" as="geometry" />
        </mxCell>
        <mxCell id="HUF-Rs4nVlGNA6Nc7pEi-20" value="IPv6" style="rounded=0;whiteSpace=wrap;html=1;fillColor=#6a00ff;fontColor=#ffffff;strokeColor=#3700CC;" parent="1" vertex="1">
          <mxGeometry x="80" y="550" width="400" height="40" as="geometry" />
        </mxCell>
        <mxCell id="HUF-Rs4nVlGNA6Nc7pEi-21" value="..." style="shape=document;whiteSpace=wrap;html=1;boundedLbl=1;rotation=-90;" parent="1" vertex="1">
          <mxGeometry x="500" y="530" width="40" height="80" as="geometry" />
        </mxCell>
      </root>
    </mxGraphModel>
  </diagram>
</mxfile>
