<?xml version="1.0" encoding="UTF-8" standalone="no"?>
<!-- Created with Inkscape (http://www.inkscape.org/) -->

<svg
   xmlns:dc="http://purl.org/dc/elements/1.1/"
   xmlns:cc="http://creativecommons.org/ns#"
   xmlns:rdf="http://www.w3.org/1999/02/22-rdf-syntax-ns#"
   xmlns:svg="http://www.w3.org/2000/svg"
   xmlns="http://www.w3.org/2000/svg"
   xmlns:sodipodi="http://sodipodi.sourceforge.net/DTD/sodipodi-0.dtd"
   xmlns:inkscape="http://www.inkscape.org/namespaces/inkscape"
   version="1.1"
   id="svg4485"
   width="34.414356cm"
   height="11.446646cm"
   viewBox="0 0 1300.7001 432.62914"
   sodipodi:docname="Ipsec_esp.svg"
   inkscape:version="0.92.1 r15371">
  <metadata
     id="metadata4491">
    <rdf:RDF>
      <cc:Work
         rdf:about="">
        <dc:format>image/svg+xml</dc:format>
        <dc:type
           rdf:resource="http://purl.org/dc/dcmitype/StillImage" />
        <dc:title></dc:title>
      </cc:Work>
    </rdf:RDF>
  </metadata>
  <defs
     id="defs4489" />
  <sodipodi:namedview
     pagecolor="#ffffff"
     bordercolor="#666666"
     borderopacity="1"
     objecttolerance="10"
     gridtolerance="10"
     guidetolerance="10"
     inkscape:pageopacity="0"
     inkscape:pageshadow="2"
     inkscape:window-width="1538"
     inkscape:window-height="878"
     id="namedview4487"
     showgrid="false"
     fit-margin-top="0.5"
     fit-margin-left="0.5"
     fit-margin-right="0.5"
     fit-margin-bottom="0.5"
     showguides="true"
     inkscape:guide-bbox="true"
     units="cm"
     inkscape:zoom="0.5437956"
     inkscape:cx="745.25551"
     inkscape:cy="-118.42962"
     inkscape:window-x="54"
     inkscape:window-y="-8"
     inkscape:window-maximized="1"
     inkscape:current-layer="layer2" />
  <g
     inkscape:groupmode="layer"
     id="layer2"
     inkscape:label="vector"
     transform="translate(112.57498,31.542008)">
    <text
       xml:space="preserve"
       style="font-style:normal;font-variant:normal;font-weight:bold;font-stretch:normal;font-size:17.33333397px;line-height:100%;font-family:sans-serif;-inkscape-font-specification:'sans-serif Bold';letter-spacing:0px;word-spacing:0px;fill:#000000;fill-opacity:1;stroke:none;stroke-width:1px;stroke-linecap:butt;stroke-linejoin:miter;stroke-opacity:1"
       x="-95.268486"
       y="79.038528"
       id="text4505"><tspan
         sodipodi:role="line"
         id="tspan4503"
         x="-95.268486"
         y="79.038528">ESP im Transportmodus</tspan></text>
    <text
       xml:space="preserve"
       style="font-style:normal;font-weight:normal;font-size:16px;line-height:100%;font-family:sans-serif;letter-spacing:0px;word-spacing:0px;fill:#d40000;fill-opacity:1;stroke:none;stroke-width:1px;stroke-linecap:butt;stroke-linejoin:miter;stroke-opacity:1"
       x="633.27399"
       y="159.4509"
       id="text4509"
       inkscape:label="authenticated"><tspan
         sodipodi:role="line"
         id="tspan4507"
         x="633.27399"
         y="159.4509">authentifiziert</tspan></text>
    <rect
       style="opacity:1;fill:none;fill-opacity:1;stroke:#000000;stroke-width:3.77952766;stroke-linecap:square;stroke-linejoin:miter;stroke-miterlimit:4;stroke-dasharray:none;stroke-dashoffset:0;stroke-opacity:1;paint-order:normal"
       id="rect4495"
       width="167.11395"
       height="106.93845"
       x="180.04083"
       y="20.787401" />
    <text
       xml:space="preserve"
       style="font-style:normal;font-weight:normal;font-size:18.66666603px;line-height:100%;font-family:sans-serif;letter-spacing:0px;word-spacing:0px;fill:#000000;fill-opacity:1;stroke:none;stroke-width:1px;stroke-linecap:butt;stroke-linejoin:miter;stroke-opacity:1"
       x="217.13623"
       y="81.215614"
       id="text4513"><tspan
         sodipodi:role="line"
         id="tspan4511"
         x="217.13623"
         y="81.215614">IP-Header</tspan></text>
    <text
       id="text4531"
       y="304.79608"
       x="-95.268478"
       style="font-style:normal;font-weight:normal;font-size:17.33333397px;line-height:100%;font-family:sans-serif;letter-spacing:0px;word-spacing:0px;fill:#000000;fill-opacity:1;stroke:none;stroke-width:1px;stroke-linecap:butt;stroke-linejoin:miter;stroke-opacity:1"
       xml:space="preserve"><tspan
         y="304.79608"
         x="-95.268478"
         id="tspan4529"
         sodipodi:role="line"
         style="font-style:normal;font-variant:normal;font-weight:bold;font-stretch:normal;font-family:sans-serif;-inkscape-font-specification:'sans-serif Bold'">ESP im Tunnelmodus</tspan></text>
    <path
       inkscape:connector-curvature="0"
       id="path4580"
       d="M 625.87742,154.22448 H 347.15478 v -17.46379"
       style="fill:none;fill-rule:evenodd;stroke:#d40000;stroke-width:3.77952766;stroke-linecap:butt;stroke-linejoin:miter;stroke-miterlimit:4;stroke-dasharray:none;stroke-opacity:1"
       sodipodi:nodetypes="ccc" />
    <text
       id="text4535"
       y="296.04953"
       x="175.58527"
       style="font-style:normal;font-weight:normal;font-size:18.66666603px;line-height:100%;font-family:sans-serif;text-align:center;letter-spacing:0px;word-spacing:0px;text-anchor:middle;fill:#000000;fill-opacity:1;stroke:none;stroke-width:1px;stroke-linecap:butt;stroke-linejoin:miter;stroke-opacity:1"
       xml:space="preserve"><tspan
         y="296.04953"
         x="175.58527"
         id="tspan4533"
         sodipodi:role="line">äußerer</tspan><tspan
         y="314.71619"
         x="175.58527"
         sodipodi:role="line"
         id="tspan4537">IP-Header</tspan></text>
    <rect
       style="opacity:1;fill:none;fill-opacity:1;stroke:#000000;stroke-width:3.77952766;stroke-linecap:square;stroke-linejoin:miter;stroke-miterlimit:4;stroke-dasharray:none;stroke-dashoffset:0;stroke-opacity:1;paint-order:normal"
       id="rect4623"
       width="100.01529"
       height="106.93846"
       x="124.20613"
       y="245.72195" />
    <text
       inkscape:label="authenticated"
       id="text4627"
       y="381.96292"
       x="571.80725"
       style="font-style:normal;font-weight:normal;font-size:16px;line-height:100%;font-family:sans-serif;letter-spacing:0px;word-spacing:0px;fill:#d40000;fill-opacity:1;stroke:none;stroke-width:1px;stroke-linecap:butt;stroke-linejoin:miter;stroke-opacity:1"
       xml:space="preserve"><tspan
         y="381.96292"
         x="571.80725"
         id="tspan4625"
         sodipodi:role="line">authentifiziert</tspan></text>
    <path
       sodipodi:nodetypes="ccc"
       style="fill:none;fill-rule:evenodd;stroke:#d40000;stroke-width:3.77952766;stroke-linecap:butt;stroke-linejoin:miter;stroke-miterlimit:4;stroke-dasharray:none;stroke-opacity:1"
       d="M 563.62862,376.73647 H 224.22141 v -17.46379"
       id="path4653"
       inkscape:connector-curvature="0" />
    <rect
       style="opacity:1;fill:none;fill-opacity:1;stroke:#000000;stroke-width:3.77952766;stroke-linecap:square;stroke-linejoin:miter;stroke-miterlimit:4;stroke-dasharray:none;stroke-dashoffset:0;stroke-opacity:1;paint-order:normal"
       id="rect4706"
       width="134.59299"
       height="106.93845"
       x="1032.7448"
       y="20.787401" />
    <rect
       y="20.787401"
       x="347.15479"
       height="106.93845"
       width="127.97212"
       id="rect4497"
       style="opacity:1;fill:none;fill-opacity:1;stroke:#000000;stroke-width:3.77952766;stroke-linecap:square;stroke-linejoin:miter;stroke-miterlimit:4;stroke-dasharray:none;stroke-dashoffset:0;stroke-opacity:1;paint-order:normal" />
    <text
       xml:space="preserve"
       style="font-style:normal;font-weight:normal;font-size:18.66666603px;line-height:100%;font-family:sans-serif;letter-spacing:0px;word-spacing:0px;fill:#000000;fill-opacity:1;stroke:none;stroke-width:1px;stroke-linecap:butt;stroke-linejoin:miter;stroke-opacity:1"
       x="355.60114"
       y="81.215614"
       id="text4517"><tspan
         sodipodi:role="line"
         id="tspan4515"
         x="355.60114"
         y="81.215614">ESP-Header</tspan></text>
    <text
       id="text4521"
       y="71.718216"
       x="538.15674"
       style="font-style:normal;font-weight:normal;font-size:18.66666603px;line-height:100%;font-family:sans-serif;text-align:center;letter-spacing:0px;word-spacing:0px;text-anchor:middle;fill:#000000;fill-opacity:1;stroke:none;stroke-width:1px;stroke-linecap:butt;stroke-linejoin:miter;stroke-opacity:1"
       xml:space="preserve"><tspan
         y="71.718216"
         x="538.15674"
         id="tspan4519"
         sodipodi:role="line">TCP- / UDP-</tspan><tspan
         y="90.38488"
         x="538.15674"
         sodipodi:role="line"
         id="tspan4527">Header</tspan></text>
    <text
       xml:space="preserve"
       style="font-style:normal;font-weight:normal;font-size:18.66666603px;line-height:100%;font-family:sans-serif;letter-spacing:0px;word-spacing:0px;fill:#000000;fill-opacity:1;stroke:none;stroke-width:1px;stroke-linecap:butt;stroke-linejoin:miter;stroke-opacity:1"
       x="720.83063"
       y="80.928505"
       id="text4525"><tspan
         sodipodi:role="line"
         id="tspan4523"
         x="720.83063"
         y="80.928505">Daten</tspan></text>
    <rect
       style="opacity:1;fill:none;fill-opacity:1;stroke:#000000;stroke-width:3.77952766;stroke-linecap:square;stroke-linejoin:miter;stroke-miterlimit:4;stroke-dasharray:none;stroke-dashoffset:0;stroke-opacity:1;paint-order:normal"
       id="rect4499"
       width="125.08442"
       height="106.93845"
       x="475.12689"
       y="20.787401" />
    <rect
       y="20.787401"
       x="600.2113"
       height="106.93845"
       width="297.94046"
       id="rect4501"
       style="opacity:1;fill:none;fill-opacity:1;stroke:#000000;stroke-width:3.77952766;stroke-linecap:square;stroke-linejoin:miter;stroke-miterlimit:4;stroke-dasharray:none;stroke-dashoffset:0;stroke-opacity:1;paint-order:normal" />
    <rect
       y="20.787401"
       x="898.15173"
       height="106.93845"
       width="134.59299"
       id="rect4704"
       style="opacity:1;fill:none;fill-opacity:1;stroke:#000000;stroke-width:3.77952766;stroke-linecap:square;stroke-linejoin:miter;stroke-miterlimit:4;stroke-dasharray:none;stroke-dashoffset:0;stroke-opacity:1;paint-order:normal" />
    <text
       id="text4710"
       y="71.718216"
       x="965.48468"
       style="font-style:normal;font-weight:normal;font-size:18.66666603px;line-height:100%;font-family:sans-serif;text-align:center;letter-spacing:0px;word-spacing:0px;text-anchor:middle;fill:#000000;fill-opacity:1;stroke:none;stroke-width:1px;stroke-linecap:butt;stroke-linejoin:miter;stroke-opacity:1"
       xml:space="preserve"><tspan
         y="71.718216"
         x="965.48468"
         id="tspan4708"
         sodipodi:role="line">ESP-</tspan><tspan
         y="90.38488"
         x="965.48468"
         sodipodi:role="line"
         id="tspan4712">Trailer</tspan></text>
    <text
       xml:space="preserve"
       style="font-style:normal;font-weight:normal;font-size:18.66666603px;line-height:100%;font-family:sans-serif;text-align:center;letter-spacing:0px;word-spacing:0px;text-anchor:middle;fill:#000000;fill-opacity:1;stroke:none;stroke-width:1px;stroke-linecap:butt;stroke-linejoin:miter;stroke-opacity:1"
       x="1100.9801"
       y="71.882278"
       id="text4718"><tspan
         sodipodi:role="line"
         id="tspan4714"
         x="1100.9801"
         y="71.882278">Authent.</tspan><tspan
         id="tspan4716"
         sodipodi:role="line"
         x="1100.9801"
         y="90.548943">Daten</tspan></text>
    <path
       sodipodi:nodetypes="ccc"
       style="fill:none;fill-rule:evenodd;stroke:#d40000;stroke-width:3.77952766;stroke-linecap:butt;stroke-linejoin:miter;stroke-miterlimit:4;stroke-dasharray:none;stroke-opacity:1"
       d="M 754.02204,154.22448 H 1032.7447 V 136.76069"
       id="path4738"
       inkscape:connector-curvature="0" />
    <rect
       y="245.72195"
       x="1032.7448"
       height="106.93845"
       width="134.59299"
       id="rect4774"
       style="opacity:1;fill:none;fill-opacity:1;stroke:#000000;stroke-width:3.77952766;stroke-linecap:square;stroke-linejoin:miter;stroke-miterlimit:4;stroke-dasharray:none;stroke-dashoffset:0;stroke-opacity:1;paint-order:normal" />
    <text
       id="text4541"
       y="306.15018"
       x="230.14838"
       style="font-style:normal;font-weight:normal;font-size:18.66666603px;line-height:100%;font-family:sans-serif;letter-spacing:0px;word-spacing:0px;fill:#000000;fill-opacity:1;stroke:none;stroke-width:1px;stroke-linecap:butt;stroke-linejoin:miter;stroke-opacity:1"
       xml:space="preserve"><tspan
         y="306.15018"
         x="230.14838"
         id="tspan4539"
         sodipodi:role="line">ESP-Header</tspan></text>
    <text
       id="text4607"
       y="296.81683"
       x="410.23395"
       style="font-style:normal;font-weight:normal;font-size:18.66666603px;line-height:100%;font-family:sans-serif;text-align:center;letter-spacing:0px;word-spacing:0px;text-anchor:middle;fill:#000000;fill-opacity:1;stroke:none;stroke-width:1px;stroke-linecap:butt;stroke-linejoin:miter;stroke-opacity:1"
       xml:space="preserve"><tspan
         y="296.81683"
         x="410.23395"
         id="tspan4605"
         sodipodi:role="line">innerer</tspan><tspan
         y="315.48349"
         x="410.23395"
         sodipodi:role="line"
         id="tspan4619">IP-Header</tspan></text>
    <text
       xml:space="preserve"
       style="font-style:normal;font-weight:normal;font-size:18.66666603px;line-height:100%;font-family:sans-serif;text-align:center;letter-spacing:0px;word-spacing:0px;text-anchor:middle;fill:#000000;fill-opacity:1;stroke:none;stroke-width:1px;stroke-linecap:butt;stroke-linejoin:miter;stroke-opacity:1"
       x="538.15674"
       y="296.65274"
       id="text4613"><tspan
         sodipodi:role="line"
         id="tspan4609"
         x="538.15674"
         y="296.65274">TCP- / UDP-</tspan><tspan
         id="tspan4611"
         sodipodi:role="line"
         x="538.15674"
         y="315.3194">Header</tspan></text>
    <text
       id="text4617"
       y="305.86304"
       x="720.83063"
       style="font-style:normal;font-weight:normal;font-size:18.66666603px;line-height:100%;font-family:sans-serif;letter-spacing:0px;word-spacing:0px;fill:#000000;fill-opacity:1;stroke:none;stroke-width:1px;stroke-linecap:butt;stroke-linejoin:miter;stroke-opacity:1"
       xml:space="preserve"><tspan
         y="305.86304"
         x="720.83063"
         id="tspan4615"
         sodipodi:role="line">Daten</tspan></text>
    <rect
       y="245.72195"
       x="224.22141"
       height="106.93846"
       width="122.93338"
       id="rect4621"
       style="opacity:1;fill:none;fill-opacity:1;stroke:#000000;stroke-width:3.77952766;stroke-linecap:square;stroke-linejoin:miter;stroke-miterlimit:4;stroke-dasharray:none;stroke-dashoffset:0;stroke-opacity:1;paint-order:normal" />
    <rect
       style="opacity:1;fill:none;fill-opacity:1;stroke:#000000;stroke-width:3.77952766;stroke-linecap:square;stroke-linejoin:miter;stroke-miterlimit:4;stroke-dasharray:none;stroke-dashoffset:0;stroke-opacity:1;paint-order:normal"
       id="rect4599"
       width="127.97212"
       height="106.93845"
       x="347.15479"
       y="245.72195" />
    <rect
       y="245.72195"
       x="475.12689"
       height="106.93845"
       width="125.08442"
       id="rect4601"
       style="opacity:1;fill:none;fill-opacity:1;stroke:#000000;stroke-width:3.77952766;stroke-linecap:square;stroke-linejoin:miter;stroke-miterlimit:4;stroke-dasharray:none;stroke-dashoffset:0;stroke-opacity:1;paint-order:normal" />
    <rect
       style="opacity:1;fill:none;fill-opacity:1;stroke:#000000;stroke-width:3.77952766;stroke-linecap:square;stroke-linejoin:miter;stroke-miterlimit:4;stroke-dasharray:none;stroke-dashoffset:0;stroke-opacity:1;paint-order:normal"
       id="rect4603"
       width="297.94046"
       height="106.93845"
       x="600.2113"
       y="245.72195" />
    <rect
       style="opacity:1;fill:none;fill-opacity:1;stroke:#000000;stroke-width:3.77952766;stroke-linecap:square;stroke-linejoin:miter;stroke-miterlimit:4;stroke-dasharray:none;stroke-dashoffset:0;stroke-opacity:1;paint-order:normal"
       id="rect4776"
       width="134.59299"
       height="106.93845"
       x="898.15173"
       y="245.72195" />
    <text
       xml:space="preserve"
       style="font-style:normal;font-weight:normal;font-size:18.66666603px;line-height:100%;font-family:sans-serif;text-align:center;letter-spacing:0px;word-spacing:0px;text-anchor:middle;fill:#000000;fill-opacity:1;stroke:none;stroke-width:1px;stroke-linecap:butt;stroke-linejoin:miter;stroke-opacity:1"
       x="965.48468"
       y="296.65277"
       id="text4782"><tspan
         sodipodi:role="line"
         id="tspan4778"
         x="965.48468"
         y="296.65277">ESP-</tspan><tspan
         id="tspan4780"
         sodipodi:role="line"
         x="965.48468"
         y="315.31943">Trailer</tspan></text>
    <text
       id="text4788"
       y="296.81683"
       x="1100.9801"
       style="font-style:normal;font-weight:normal;font-size:18.66666603px;line-height:100%;font-family:sans-serif;text-align:center;letter-spacing:0px;word-spacing:0px;text-anchor:middle;fill:#000000;fill-opacity:1;stroke:none;stroke-width:1px;stroke-linecap:butt;stroke-linejoin:miter;stroke-opacity:1"
       xml:space="preserve"><tspan
         y="296.81683"
         x="1100.9801"
         id="tspan4784"
         sodipodi:role="line">Authent.</tspan><tspan
         y="315.48349"
         x="1100.9801"
         sodipodi:role="line"
         id="tspan4786">Daten</tspan></text>
    <path
       inkscape:connector-curvature="0"
       id="path4812"
       d="M 693.33747,376.73647 H 1032.7447 V 359.27268"
       style="fill:none;fill-rule:evenodd;stroke:#d40000;stroke-width:3.77952766;stroke-linecap:butt;stroke-linejoin:miter;stroke-miterlimit:4;stroke-dasharray:none;stroke-opacity:1"
       sodipodi:nodetypes="ccc" />
    <text
       inkscape:label="authenticated"
       id="text4834"
       y="-0.48812044"
       x="701.36157"
       style="font-style:normal;font-weight:normal;font-size:16px;line-height:100%;font-family:sans-serif;letter-spacing:0px;word-spacing:0px;fill:#000080;fill-opacity:1;stroke:none;stroke-width:1px;stroke-linecap:butt;stroke-linejoin:miter;stroke-opacity:1"
       xml:space="preserve"><tspan
         y="-0.48812044"
         x="701.36157"
         id="tspan4832"
         sodipodi:role="line">verschlüsselt</tspan></text>
    <path
       inkscape:connector-curvature="0"
       id="path4841"
       d="m 813.18647,-4.785797 h 219.55823 v 17.46379"
       style="fill:none;fill-rule:evenodd;stroke:#000080;stroke-width:3.77952766;stroke-linecap:butt;stroke-linejoin:miter;stroke-miterlimit:4;stroke-dasharray:none;stroke-opacity:1"
       sodipodi:nodetypes="ccc" />
    <path
       sodipodi:nodetypes="ccc"
       style="fill:none;fill-rule:evenodd;stroke:#000080;stroke-width:3.77952766;stroke-linecap:butt;stroke-linejoin:miter;stroke-miterlimit:4;stroke-dasharray:none;stroke-opacity:1"
       d="M 694.68514,-4.785797 H 475.12687 v 17.46379"
       id="path4843"
       inkscape:connector-curvature="0" />
    <text
       xml:space="preserve"
       style="font-style:normal;font-weight:normal;font-size:16px;line-height:100%;font-family:sans-serif;letter-spacing:0px;word-spacing:0px;fill:#000080;fill-opacity:1;stroke:none;stroke-width:1px;stroke-linecap:butt;stroke-linejoin:miter;stroke-opacity:1"
       x="637.37555"
       y="224.46675"
       id="text4849"
       inkscape:label="authenticated"><tspan
         sodipodi:role="line"
         id="tspan4847"
         x="637.37555"
         y="224.46675">verschlüsselt</tspan></text>
    <path
       sodipodi:nodetypes="ccc"
       style="fill:none;fill-rule:evenodd;stroke:#000080;stroke-width:3.77952766;stroke-linecap:butt;stroke-linejoin:miter;stroke-miterlimit:4;stroke-dasharray:none;stroke-opacity:1"
       d="m 749.28378,220.16908 h 283.46092 v 17.46379"
       id="path4851"
       inkscape:connector-curvature="0" />
    <path
       inkscape:connector-curvature="0"
       id="path4861"
       d="M 630.61574,220.16908 H 347.15478 v 17.46379"
       style="fill:none;fill-rule:evenodd;stroke:#000080;stroke-width:3.77952766;stroke-linecap:butt;stroke-linejoin:miter;stroke-miterlimit:4;stroke-dasharray:none;stroke-opacity:1"
       sodipodi:nodetypes="ccc" />
  </g>
</svg>
